mode: set
github.com\sanderkp\imt2681_ass3\ass3.go:56.58,57.33 1 1
github.com\sanderkp\imt2681_ass3\ass3.go:62.2,63.16 2 1
github.com\sanderkp\imt2681_ass3\ass3.go:68.2,70.16 3 1
github.com\sanderkp\imt2681_ass3\ass3.go:75.2,76.88 2 1
github.com\sanderkp\imt2681_ass3\ass3.go:104.2,125.63 21 1
github.com\sanderkp\imt2681_ass3\ass3.go:57.33,61.3 3 1
github.com\sanderkp\imt2681_ass3\ass3.go:63.16,67.3 2 0
github.com\sanderkp\imt2681_ass3\ass3.go:70.16,74.3 3 1
github.com\sanderkp\imt2681_ass3\ass3.go:76.88,78.3 1 1
github.com\sanderkp\imt2681_ass3\ass3.go:78.3,83.17 5 0
github.com\sanderkp\imt2681_ass3\ass3.go:89.3,90.17 2 0
github.com\sanderkp\imt2681_ass3\ass3.go:95.3,96.17 2 0
github.com\sanderkp\imt2681_ass3\ass3.go:102.3,102.154 1 0
github.com\sanderkp\imt2681_ass3\ass3.go:83.17,87.4 2 0
github.com\sanderkp\imt2681_ass3\ass3.go:90.17,94.4 2 0
github.com\sanderkp\imt2681_ass3\ass3.go:96.17,100.4 2 0
github.com\sanderkp\imt2681_ass3\ass3.go:128.13,130.16 2 0
github.com\sanderkp\imt2681_ass3\ass3.go:133.2,135.36 3 0
github.com\sanderkp\imt2681_ass3\ass3.go:130.16,132.3 1 0
